30320416,2016-04-14,JHJAM-203,4900, BRNBS15160342,2016-04-15,CLUSTER
30320416,2016-04-15,JHJAM-203,4900, BRNBS15160342,2016-04-16,CLUSTER
303203463,2016-04-16,JHJAM-207,4900,BRNBS151604534,2016-04-17,CLUSTER
303203463,2016-04-17,JHJAM-207,4900,BRNBS151604534,2016-04-18,CLUSTER
303203463,2016-04-18,JHJAM-207,4900,BRNBS151604534,2016-04-19,CLUSTER
