------------------------------- ------------------------------- ----------
Terms of delivery: DDU  DDU TBD
Terms of payment: 90 days net_from invoice  receipt date
Please SEND your invoices in  appropriate format and CHANNEL  indicated onthe following link:
https://apportal.nokia.com/APPo rtalExt/AddressSearch.aspx
Nokia accepts and processes  received invoices only in  appropriate formatand through  appropriate channel
BAL MO U.P. East/PUR/38259
_______________________________ _______________________________ ______________________
Item Item code Order qty. Unit Price per unit  Net value INR
Description
_______________________________ _______________________________ ______________________
00006890.00 3G-RF optimisation Macro  Site(PLO)
00010 00007740                  1 Piece         700.00            700.00
Field Drive Test
Delivery date:    05.02.2020
Site-ID:      G-220033PD1-RUP-OP1-927A
00020 00077201                  1 Piece       2,500.00          2,500.00
Radio Network Overlay Design
Delivery date:    05.02.2020
Site-ID:      G-220033PD1-RUP-OP1-927ADECON CONSTRUCTION COMPANY
R -12 28 Raj Nagar
GHAZIABAD 201001
INDIA
PAN: AAEFD9836F
Please deliver to:
SITE
UPEGHAI01
#REF!
#REF!
#REF!
INDIA
PO Validity
Services PO : 9 months from the  date of PO (for care AMC
PO the date should be 9 month  from the date of last month) .
Local Supply PO validity - 3  months from the date of PO
Global/Foreign Services PO - 6  months from the date of PO
SPECIAL NOTE : Vendors need to  submit the invoices
within 4 weeks from the date of  GR (Goods Receipt) .
_______________________________ _______________________________ ______________________
Bill to Address (Your contract  partner or debtor)  Service Tax No: AACCN3871FST001    Please SEND your invoice in  appropriate
Nokia Solutions and Networks  India Pvt Ltd.     VAT TIN: 07190324978      format and CHANNEL  indicated on the following  link:
1507, Regus Business Centre,                       CST TIN:  07190324978       https://ap.nsn.com/APPortalExt/ AddressSearch.aspx
Eros Corporate Towers, Level  15,                       Ph  No:+91(124)4504000      Nokia  accepts and processes received  invoices only in
Nehru Place, New Delhi -110019                       Fax  No:+91(124)4504999      appropriate format and through  appropriate channel.Purchase Order
PO number/ date
31936665 / 08.02.2016 
Contact person/Telephone
Shilpa Jayaram/
E-mail: shilpa.jayaram.ext@nokia.com Page  1 /    2
08.02.2016

_______________________________ _______________________________ ______________________
Item Item code Order qty. Unit Price per unit  Net value INR
Description
_______________________________ _______________________________ ______________________
00030 00007740                  1 Piece         700.00            700.00
Field Drive Test
Delivery date:    05.02.2020
Site-ID:      G-220033PD1-RUP-OP1-927A
Total value INR             3,900.00 
Total Amount in words : THREE  THOUSAND NINE HUNDRED  RUPEES  ZERO  PAISE ONLY
THIS IS AN ELECTRONICALLY  GENERATED PURCHASE ORDER AND  DOES NOT
REQUIRE A SIGNATURE.
******************************* ******************************* **********************
In other respects, the Nokia  Solutions and Networks General  conditions shall apply unless  otherwise
agreed to between the parties  in a valid written agreement.
******************************* ******************************* **********************DECON CONSTRUCTION COMPANY
GHAZIABAD 201001
_______________________________ _______________________________ ______________________
Bill to Address (Your contract  partner or debtor)  Service Tax No: AACCN3871FST001    Please SEND your invoice in  appropriate
Nokia Solutions and Networks  India Pvt Ltd.     VAT TIN: 07190324978      format and CHANNEL  indicated on the following  link:
1507, Regus Business Centre,                       CST TIN:  07190324978       https://ap.nsn.com/APPortalExt/ AddressSearch.aspx
Eros Corporate Towers, Level  15,                       Ph  No:+91(124)4504000      Nokia  accepts and processes received  invoices only in
Nehru Place, New Delhi -110019                       Fax  No:+91(124)4504999      appropriate format and through  appropriate channel.Purchase Order
PO number/ date
 31936665  / 08.02.2016 Page  2 /    2
08.02.2016