------------------------------- ------------------------------- ----------
Terms of delivery: DDU  DDU TBD
Terms of payment: 90 days net_from invoice  receipt date
Please send your original  invoice to below mentioned  scanning center address-
Crown Worldwide Movers Pvt Ltd.
Ground Floor, Plot No-424,  Udyog Vihar, Phase -IV
Gurgaon, Haryana, Pin-122015,  India
Attention - Records Management  Services
Account No- DEL-N008/NSN India
BAL MO MP 23815
_______________________________ _______________________________ ______________________
Item Item code Order qty. Unit Price per unit  Net value INR
Description
_______________________________ _______________________________ ______________________
00006890.00 3G-RF optimisation Macro  Site(SCFT)
00010 00077201                  1 Piece         900.00            900.00
Radio Network Overlay Design
Delivery date:    08.01.2020
Site-ID:      G-220035PD1-RMP-ZP1-P423
00020 00007740                  1 Piece       4,000.00          4,000.00
Field Drive TestDECON CONSTRUCTION COMPANY
R -12 28 Raj Nagar
GHAZIABAD 201001
INDIA
PAN: AAEFD9836F
Please deliver to:
SITE
DMP423
INDIA
PO Validity
Services PO : 9 months from the  date of PO (for care AMC
PO the date should be 9 month  from the date of last month) .
Local Supply PO validity - 3  months from the date of PO
Global/Foreign Services PO - 6  months from the date of PO
SPECIAL NOTE : Vendors need to  submit the invoices
within 4 weeks from the date of  GR (Goods Receipt) .
_______________________________ _______________________________ ______________________
Bill to Address (Your contract  partner or debtor)  Service Tax No: AACCN3871FST001    Please SEND your invoice in  appropriate
Nokia Solutions and Networks  India Pvt Ltd.     VAT TIN: 07190324978      format and CHANNEL  indicated on the following  link:
1507, Regus Business Centre,                       CST TIN:  07190324978       https://ap.nsn.com/APPortalExt/ AddressSearch.aspx
Eros Corporate Towers, Level  15,                       Ph  No:+91(124)4504000      Nokia  accepts and processes received  invoices only in
Nehru Place, New Delhi -110019                       Fax  No:+91(124)4504999      appropriate format and through  appropriate channel.Purchase Order
PO number/ date
31798008 / 11.01.2016 
Contact person/Telephone
Shilpa Jayaram/
E-mail: shilpa.jayaram.ext@nokia.com Page  1 /    2
11.01.2016

_______________________________ _______________________________ ______________________
Item Item code Order qty. Unit Price per unit  Net value INR
Description
_______________________________ _______________________________ ______________________
Delivery date:    08.01.2020
Site-ID:      G-220035PD1-RMP-ZP1-P423
Total value INR             4,900.00 
Total Amount in words : FOUR  THOUSAND NINE HUNDRED  RUPEES  ZERO  PAISE ONLY
THIS IS AN ELECTRONICALLY  GENERATED PURCHASE ORDER AND  DOES NOT
REQUIRE A SIGNATURE.
******************************* ******************************* **********************
In other respects, the Nokia  Solutions and Networks General  conditions shall apply unless  otherwise
agreed to between the parties  in a valid written agreement.
******************************* ******************************* **********************DECON CONSTRUCTION COMPANY
GHAZIABAD 201001
_______________________________ _______________________________ ______________________
Bill to Address (Your contract  partner or debtor)  Service Tax No: AACCN3871FST001    Please SEND your invoice in  appropriate
Nokia Solutions and Networks  India Pvt Ltd.     VAT TIN: 07190324978      format and CHANNEL  indicated on the following  link:
1507, Regus Business Centre,                       CST TIN:  07190324978       https://ap.nsn.com/APPortalExt/ AddressSearch.aspx
Eros Corporate Towers, Level  15,                       Ph  No:+91(124)4504000      Nokia  accepts and processes received  invoices only in
Nehru Place, New Delhi -110019                       Fax  No:+91(124)4504999      appropriate format and through  appropriate channel.Purchase Order
PO number/ date
 31798008  / 11.01.2016 Page  2 /    2
11.01.2016